,mu,std
MEM,0.35759747,0.3194644
blr,0.70923215,0.28278273
N_btags_Loose,3.1417067,0.36475506
mass_tag_tag_min_deltaR,114.138245,75.02627
mass_tag_tag_max_mass,274.38345,176.5958
mass_jet_tag_tag_max_pT,335.31332,218.58687
pT_tag_tag_min_deltaR,150.34418,82.50199
avgDeltaR_tag_tag,2.3011546,0.49112242
avgDeltaR_jet_jet,2.315558,0.35058957
maxDeltaEta_tag_tag,1.8152437,0.89471865
maxDeltaEta_jet_jet,2.4648037,0.9157962
H2_tag,1.2714497,0.31921437
H4_tag,1.2296165,0.30136916
R2_jet,0.6137562,0.13124268
centrality_tags,0.6232706,0.18035777
sphericity_tag,0.29152724,0.18420662
jet4_btag,0.5034886,0.40740985
pT_jet_tag_min_deltaR,158.4187,88.99533
multiplicity_higgsLikeDijet15,1.2514423,1.1548098
